[
    {
        "name": "phpoffice/phpexcel",
        "version": "1.8.1",
        "version_normalized": "1.8.1.0",
        "source": {
            "type": "git",
            "url": "https://github.com/PHPOffice/PHPExcel.git",
            "reference": "372c7cbb695a6f6f1e62649381aeaa37e7e70b32"
        },
        "dist": {
            "type": "zip",
            "url": "https://api.github.com/repos/PHPOffice/PHPExcel/zipball/372c7cbb695a6f6f1e62649381aeaa37e7e70b32",
            "reference": "372c7cbb695a6f6f1e62649381aeaa37e7e70b32",
            "shasum": ""
        },
        "require": {
            "ext-xml": "*",
            "ext-xmlwriter": "*",
            "php": ">=5.2.0"
        },
        "time": "2015-05-01 07:00:55",
        "type": "library",
        "installation-source": "dist",
        "autoload": {
            "psr-0": {
                "PHPExcel": "Classes/"
            }
        },
        "notification-url": "https://packagist.org/downloads/",
        "license": [
            "LGPL"
        ],
        "authors": [
            {
                "name": "Maarten Balliauw",
                "homepage": "http://blog.maartenballiauw.be"
            },
            {
                "name": "Mark Baker"
            },
            {
                "name": "Franck Lefevre",
                "homepage": "http://blog.rootslabs.net"
            },
            {
                "name": "Erik Tilt"
            }
        ],
        "description": "PHPExcel - OpenXML - Read, Create and Write Spreadsheet documents in PHP - Spreadsheet engine",
        "homepage": "http://phpexcel.codeplex.com",
        "keywords": [
            "OpenXML",
            "excel",
            "php",
            "spreadsheet",
            "xls",
            "xlsx"
        ]
    },
    {
        "name": "doctrine/lexer",
        "version": "v1.0.1",
        "version_normalized": "1.0.1.0",
        "source": {
            "type": "git",
            "url": "https://github.com/doctrine/lexer.git",
            "reference": "83893c552fd2045dd78aef794c31e694c37c0b8c"
        },
        "dist": {
            "type": "zip",
            "url": "https://api.github.com/repos/doctrine/lexer/zipball/83893c552fd2045dd78aef794c31e694c37c0b8c",
            "reference": "83893c552fd2045dd78aef794c31e694c37c0b8c",
            "shasum": ""
        },
        "require": {
            "php": ">=5.3.2"
        },
        "time": "2014-09-09 13:34:57",
        "type": "library",
        "extra": {
            "branch-alias": {
                "dev-master": "1.0.x-dev"
            }
        },
        "installation-source": "dist",
        "autoload": {
            "psr-0": {
                "Doctrine\\Common\\Lexer\\": "lib/"
            }
        },
        "notification-url": "https://packagist.org/downloads/",
        "license": [
            "MIT"
        ],
        "authors": [
            {
                "name": "Roman Borschel",
                "email": "roman@code-factory.org"
            },
            {
                "name": "Guilherme Blanco",
                "email": "guilhermeblanco@gmail.com"
            },
            {
                "name": "Johannes Schmitt",
                "email": "schmittjoh@gmail.com"
            }
        ],
        "description": "Base library for a lexer that can be used in Top-Down, Recursive Descent Parsers.",
        "homepage": "http://www.doctrine-project.org",
        "keywords": [
            "lexer",
            "parser"
        ]
    },
    {
        "name": "doctrine/inflector",
        "version": "v1.1.0",
        "version_normalized": "1.1.0.0",
        "source": {
            "type": "git",
            "url": "https://github.com/doctrine/inflector.git",
            "reference": "90b2128806bfde671b6952ab8bea493942c1fdae"
        },
        "dist": {
            "type": "zip",
            "url": "https://api.github.com/repos/doctrine/inflector/zipball/90b2128806bfde671b6952ab8bea493942c1fdae",
            "reference": "90b2128806bfde671b6952ab8bea493942c1fdae",
            "shasum": ""
        },
        "require": {
            "php": ">=5.3.2"
        },
        "require-dev": {
            "phpunit/phpunit": "4.*"
        },
        "time": "2015-11-06 14:35:42",
        "type": "library",
        "extra": {
            "branch-alias": {
                "dev-master": "1.1.x-dev"
            }
        },
        "installation-source": "dist",
        "autoload": {
            "psr-0": {
                "Doctrine\\Common\\Inflector\\": "lib/"
            }
        },
        "notification-url": "https://packagist.org/downloads/",
        "license": [
            "MIT"
        ],
        "authors": [
            {
                "name": "Roman Borschel",
                "email": "roman@code-factory.org"
            },
            {
                "name": "Benjamin Eberlei",
                "email": "kontakt@beberlei.de"
            },
            {
                "name": "Guilherme Blanco",
                "email": "guilhermeblanco@gmail.com"
            },
            {
                "name": "Jonathan Wage",
                "email": "jonwage@gmail.com"
            },
            {
                "name": "Johannes Schmitt",
                "email": "schmittjoh@gmail.com"
            }
        ],
        "description": "Common String Manipulations with regard to casing and singular/plural rules.",
        "homepage": "http://www.doctrine-project.org",
        "keywords": [
            "inflection",
            "pluralize",
            "singularize",
            "string"
        ]
    },
    {
        "name": "doctrine/collections",
        "version": "v1.4.0",
        "version_normalized": "1.4.0.0",
        "source": {
            "type": "git",
            "url": "https://github.com/doctrine/collections.git",
            "reference": "1a4fb7e902202c33cce8c55989b945612943c2ba"
        },
        "dist": {
            "type": "zip",
            "url": "https://api.github.com/repos/doctrine/collections/zipball/1a4fb7e902202c33cce8c55989b945612943c2ba",
            "reference": "1a4fb7e902202c33cce8c55989b945612943c2ba",
            "shasum": ""
        },
        "require": {
            "php": "^5.6 || ^7.0"
        },
        "require-dev": {
            "doctrine/coding-standard": "~0.1@dev",
            "phpunit/phpunit": "^5.7"
        },
        "time": "2017-01-03 10:49:41",
        "type": "library",
        "extra": {
            "branch-alias": {
                "dev-master": "1.3.x-dev"
            }
        },
        "installation-source": "dist",
        "autoload": {
            "psr-0": {
                "Doctrine\\Common\\Collections\\": "lib/"
            }
        },
        "notification-url": "https://packagist.org/downloads/",
        "license": [
            "MIT"
        ],
        "authors": [
            {
                "name": "Roman Borschel",
                "email": "roman@code-factory.org"
            },
            {
                "name": "Benjamin Eberlei",
                "email": "kontakt@beberlei.de"
            },
            {
                "name": "Guilherme Blanco",
                "email": "guilhermeblanco@gmail.com"
            },
            {
                "name": "Jonathan Wage",
                "email": "jonwage@gmail.com"
            },
            {
                "name": "Johannes Schmitt",
                "email": "schmittjoh@gmail.com"
            }
        ],
        "description": "Collections Abstraction library",
        "homepage": "http://www.doctrine-project.org",
        "keywords": [
            "array",
            "collections",
            "iterator"
        ]
    },
    {
        "name": "doctrine/cache",
        "version": "v1.6.1",
        "version_normalized": "1.6.1.0",
        "source": {
            "type": "git",
            "url": "https://github.com/doctrine/cache.git",
            "reference": "b6f544a20f4807e81f7044d31e679ccbb1866dc3"
        },
        "dist": {
            "type": "zip",
            "url": "https://api.github.com/repos/doctrine/cache/zipball/b6f544a20f4807e81f7044d31e679ccbb1866dc3",
            "reference": "b6f544a20f4807e81f7044d31e679ccbb1866dc3",
            "shasum": ""
        },
        "require": {
            "php": "~5.5|~7.0"
        },
        "conflict": {
            "doctrine/common": ">2.2,<2.4"
        },
        "require-dev": {
            "phpunit/phpunit": "~4.8|~5.0",
            "predis/predis": "~1.0",
            "satooshi/php-coveralls": "~0.6"
        },
        "time": "2016-10-29 11:16:17",
        "type": "library",
        "extra": {
            "branch-alias": {
                "dev-master": "1.6.x-dev"
            }
        },
        "installation-source": "dist",
        "autoload": {
            "psr-4": {
                "Doctrine\\Common\\Cache\\": "lib/Doctrine/Common/Cache"
            }
        },
        "notification-url": "https://packagist.org/downloads/",
        "license": [
            "MIT"
        ],
        "authors": [
            {
                "name": "Roman Borschel",
                "email": "roman@code-factory.org"
            },
            {
                "name": "Benjamin Eberlei",
                "email": "kontakt@beberlei.de"
            },
            {
                "name": "Guilherme Blanco",
                "email": "guilhermeblanco@gmail.com"
            },
            {
                "name": "Jonathan Wage",
                "email": "jonwage@gmail.com"
            },
            {
                "name": "Johannes Schmitt",
                "email": "schmittjoh@gmail.com"
            }
        ],
        "description": "Caching library offering an object-oriented API for many cache backends",
        "homepage": "http://www.doctrine-project.org",
        "keywords": [
            "cache",
            "caching"
        ]
    },
    {
        "name": "doctrine/annotations",
        "version": "v1.4.0",
        "version_normalized": "1.4.0.0",
        "source": {
            "type": "git",
            "url": "https://github.com/doctrine/annotations.git",
            "reference": "54cacc9b81758b14e3ce750f205a393d52339e97"
        },
        "dist": {
            "type": "zip",
            "url": "https://api.github.com/repos/doctrine/annotations/zipball/54cacc9b81758b14e3ce750f205a393d52339e97",
            "reference": "54cacc9b81758b14e3ce750f205a393d52339e97",
            "shasum": ""
        },
        "require": {
            "doctrine/lexer": "1.*",
            "php": "^5.6 || ^7.0"
        },
        "require-dev": {
            "doctrine/cache": "1.*",
            "phpunit/phpunit": "^5.7"
        },
        "time": "2017-02-24 16:22:25",
        "type": "library",
        "extra": {
            "branch-alias": {
                "dev-master": "1.4.x-dev"
            }
        },
        "installation-source": "dist",
        "autoload": {
            "psr-4": {
                "Doctrine\\Common\\Annotations\\": "lib/Doctrine/Common/Annotations"
            }
        },
        "notification-url": "https://packagist.org/downloads/",
        "license": [
            "MIT"
        ],
        "authors": [
            {
                "name": "Roman Borschel",
                "email": "roman@code-factory.org"
            },
            {
                "name": "Benjamin Eberlei",
                "email": "kontakt@beberlei.de"
            },
            {
                "name": "Guilherme Blanco",
                "email": "guilhermeblanco@gmail.com"
            },
            {
                "name": "Jonathan Wage",
                "email": "jonwage@gmail.com"
            },
            {
                "name": "Johannes Schmitt",
                "email": "schmittjoh@gmail.com"
            }
        ],
        "description": "Docblock Annotations Parser",
        "homepage": "http://www.doctrine-project.org",
        "keywords": [
            "annotations",
            "docblock",
            "parser"
        ]
    },
    {
        "name": "doctrine/common",
        "version": "v2.7.2",
        "version_normalized": "2.7.2.0",
        "source": {
            "type": "git",
            "url": "https://github.com/doctrine/common.git",
            "reference": "930297026c8009a567ac051fd545bf6124150347"
        },
        "dist": {
            "type": "zip",
            "url": "https://api.github.com/repos/doctrine/common/zipball/930297026c8009a567ac051fd545bf6124150347",
            "reference": "930297026c8009a567ac051fd545bf6124150347",
            "shasum": ""
        },
        "require": {
            "doctrine/annotations": "1.*",
            "doctrine/cache": "1.*",
            "doctrine/collections": "1.*",
            "doctrine/inflector": "1.*",
            "doctrine/lexer": "1.*",
            "php": "~5.6|~7.0"
        },
        "require-dev": {
            "phpunit/phpunit": "^5.4.6"
        },
        "time": "2017-01-13 14:02:13",
        "type": "library",
        "extra": {
            "branch-alias": {
                "dev-master": "2.7.x-dev"
            }
        },
        "installation-source": "dist",
        "autoload": {
            "psr-4": {
                "Doctrine\\Common\\": "lib/Doctrine/Common"
            }
        },
        "notification-url": "https://packagist.org/downloads/",
        "license": [
            "MIT"
        ],
        "authors": [
            {
                "name": "Roman Borschel",
                "email": "roman@code-factory.org"
            },
            {
                "name": "Benjamin Eberlei",
                "email": "kontakt@beberlei.de"
            },
            {
                "name": "Guilherme Blanco",
                "email": "guilhermeblanco@gmail.com"
            },
            {
                "name": "Jonathan Wage",
                "email": "jonwage@gmail.com"
            },
            {
                "name": "Johannes Schmitt",
                "email": "schmittjoh@gmail.com"
            }
        ],
        "description": "Common Library for Doctrine projects",
        "homepage": "http://www.doctrine-project.org",
        "keywords": [
            "annotations",
            "collections",
            "eventmanager",
            "persistence",
            "spl"
        ]
    },
    {
        "name": "ticketpark/htmlphpexcel",
        "version": "0.4.1",
        "version_normalized": "0.4.1.0",
        "source": {
            "type": "git",
            "url": "https://github.com/Ticketpark/HtmlPhpExcel.git",
            "reference": "5e7dae6d61adadfa4138745ae48e5bfdc943f9fc"
        },
        "dist": {
            "type": "zip",
            "url": "https://api.github.com/repos/Ticketpark/HtmlPhpExcel/zipball/5e7dae6d61adadfa4138745ae48e5bfdc943f9fc",
            "reference": "5e7dae6d61adadfa4138745ae48e5bfdc943f9fc",
            "shasum": ""
        },
        "require": {
            "doctrine/common": "~2.4",
            "php": ">=5.3.2",
            "phpoffice/phpexcel": "~1.8"
        },
        "time": "2017-03-08 23:55:45",
        "type": "library",
        "installation-source": "dist",
        "autoload": {
            "psr-4": {
                "Ticketpark\\HtmlPhpExcel\\": "lib/HtmlPhpExcel"
            }
        },
        "notification-url": "https://packagist.org/downloads/",
        "license": [
            "MIT"
        ],
        "authors": [
            {
                "name": "Manuel Reinhard",
                "email": "manu@sprain.ch"
            }
        ],
        "description": "A php library based on PHPExcel to convert html tables to Excel files, including styling.",
        "homepage": "https://github.com/Ticketpark/HtmlPhpExcel",
        "keywords": [
            "PHPExcel",
            "excel",
            "html",
            "tables"
        ]
    }
]
